{
  "name": "VueJS",
  "level": 5,
  "definitionLevel": "https://the-bac.edu/Documents/Departments/Practice/2014/Skill_Level_Definitions_2014.pdf",
  "description": "After try React couple years ago, I said to myself that I didn't want to code on this language anymore. after than I also try angular but it is not my type. This is just the beginning",
  "keywords": ["Frontend", "Framework"],
  "order": 0
}
